Vending_Machine_FSM.sim/sim_1/behav/xsim/Vending.vcd
$date
   Mon Apr  6 14:54:36 2026
$end

$version
  2025.1.0
  $dumpfile ("Vending.vcd") 
$end

$timescale
  1ps
$end

$scope module Vending_machine_top_tb $end
$var reg 1 ! clk $end
$var reg 1 " rst $end
$var reg 1 # buy $end
$var reg 1 $ coin $end
$var reg 1 % pq $end
$var reg 1 & go $end
$var reg 2 ' s1s2 [1:0] $end
$var wire 7 ( balance_display [6:0] $end
$var wire 7 ) return_display [6:0] $end
$var wire 2 * selected_product_led [1:0] $end
$var wire 4 + selected_quantity_led [3:0] $end
$var wire 1 , done $end
$var wire 1 - error $end
$var wire 1 . purchase_mode_active $end
$var wire 1 / idle_mode_status $end
$scope module uut $end
$var wire 1 0 clk $end
$var wire 1 1 rst $end
$var wire 1 2 buy $end
$var wire 1 3 coin $end
$var wire 1 4 pq $end
$var wire 1 5 go $end
$var wire 2 6 s1s2 [1:0] $end
$var wire 4 7 D0_AN [3:0] $end
$var wire 7 ( balance_display [6:0] $end
$var wire 4 8 D1_AN [3:0] $end
$var wire 7 ) return_display [6:0] $end
$var wire 2 * selected_product_led [1:0] $end
$var wire 4 + selected_quantity_led [3:0] $end
$var wire 1 , done $end
$var wire 1 - error $end
$var wire 1 . purchase_mode_active $end
$var wire 1 / idle_mode_status $end
$var wire 1 9 clr $end
$var wire 1 : ld_balance $end
$var wire 1 ; inc_qty $end
$var wire 1 < calc $end
$var wire 1 = update_stock $end
$var wire 1 > enough_balance $end
$var wire 1 ? stock_ok $end
$var wire 4 @ quantity [3:0] $end
$var wire 8 A balance [7:0] $end
$var wire 8 B return_amt [7:0] $end
$scope module dp $end
$var wire 1 0 clk $end
$var wire 1 1 rst $end
$var wire 1 3 coin $end
$var wire 1 4 pq $end
$var wire 2 6 s1s2 [1:0] $end
$var wire 1 9 clr $end
$var wire 1 : ld_balance $end
$var wire 1 ; inc_qty $end
$var wire 1 < calc $end
$var wire 1 = update_stock $end
$var reg 8 C balance_display [7:0] $end
$var reg 8 D return_display [7:0] $end
$var reg 4 E quantity [3:0] $end
$var wire 1 > enough_balance $end
$var wire 1 ? stock_ok $end
$var reg 8 F balance [7:0] $end
$var reg 8 G total_cost [7:0] $end
$var reg 8 H price [7:0] $end
$var reg 4 I stock_p1 [3:0] $end
$var reg 4 J stock_p2 [3:0] $end
$upscope $end
$scope module ctrl $end
$var wire 1 0 clk $end
$var wire 1 1 rst $end
$var wire 1 2 buy $end
$var wire 1 5 go $end
$var wire 1 > enough_balance $end
$var wire 1 ? stock_ok $end
$var reg 1 K clr $end
$var reg 1 L ld_balance $end
$var reg 1 M inc_qty $end
$var reg 1 N calc $end
$var reg 1 O update_stock $end
$var reg 1 P done $end
$var reg 1 Q error $end
$var reg 1 R purchase_mode_active $end
$var reg 1 S idle_mode_status $end
$var reg 2 T state [1:0] $end
$var reg 2 U next_state [1:0] $end
$upscope $end
$scope module s1 $end
$var wire 4 V bin [3:0] $end
$var reg 7 W seg [6:0] $end
$upscope $end
$scope module s2 $end
$var wire 4 X bin [3:0] $end
$var reg 7 Y seg [6:0] $end
$upscope $end
$upscope $end
$scope task insert_coin $end
$upscope $end
$scope task increase_qty $end
$upscope $end
$scope task start_purchase $end
$upscope $end
$scope task confirm_purchase $end
$upscope $end
$upscope $end
$enddefinitions $end

#0
$dumpvars
0!
1"
0#
0$
0%
0&
b0 '
bx (
bx )
b0 *
bx +
x,
x-
x.
x/
00
11
02
03
04
05
b0 6
b1110 7
b1110 8
x9
x:
x;
x<
x=
x>
0?
bx @
bx A
bx B
bx C
bx D
bx E
bx F
bx G
bx H
bx I
bx J
xK
xL
xM
xN
xO
xP
xQ
xR
xS
bx T
b0 U
bx V
bx W
bx X
bx Y
$end

#5000
1!
b1000000 (
b1000000 )
b0 +
0,
0-
0.
1/
10
19
0:
0;
0<
0=
1>
b0 @
b0 A
b0 B
b0 C
b0 D
b0 E
b0 F
b0 G
b0 H
b1010 I
b1010 J
1K
0L
0M
0N
0O
0P
0Q
0R
1S
b0 T
b0 V
b1000000 W
b0 X
b1000000 Y

#10000
0!
00

#15000
1!
10

#20000
0!
0"
00
01

#25000
1!
1#
10
12
b1 U

#30000
0!
00

#35000
1!
0#
b1 '
b1 *
1.
0/
10
02
b1 6
09
1:
1;
1<
b101 H
0K
1L
1M
1N
1R
0S
b1 T
b1 U

#40000
0!
00

#45000
1!
1$
b10010 (
10
13
b101 A
b101 C
b101 F
b101 V
b10010 W

#50000
0!
00

#55000
1!
0$
10
03

#60000
0!
00

#65000
1!
1%
b1 +
10
14
1?
b1 @
b1 E

#70000
0!
00

#75000
1!
0%
10
04
b101 G

#80000
0!
00

#85000
1!
1&
1,
10
15
1P
b10 U

#90000
0!
00

#95000
1!
0&
0,
0.
10
05
0:
0;
0<
1=
0L
0M
0N
1O
0P
0R
b10 T
b0 U

#100000
0!
00

#105000
1!
1/
10
19
0=
b1001 I
1K
0O
1S
b0 T

#110000
0!
00

#115000
1!
b1000000 (
b0 +
10
0>
0?
b0 @
b0 A
b0 C
b0 E
b0 F
b0 V
b1000000 W

#120000
0!
00

#125000
1!
1"
10
11
1>
b0 G
b0 H
b1010 I

#130000
0!
00

#135000
1!
0"
1#
10
01
12
b101 H
b1 U

#140000
0!
00

#145000
1!
0#
b10 '
b10 *
1.
0/
10
02
b10 6
09
1:
1;
1<
b1010 H
0K
1L
1M
1N
1R
0S
b1 T
b1 U

#150000
0!
00

#155000
1!
1$
b10010 (
10
13
b101 A
b101 C
b101 F
b101 V
b10010 W

#160000
0!
00

#165000
1!
0$
10
03

#170000
0!
00

#175000
1!
1$
b1111111 (
10
13
b1010 A
b1010 C
b1010 F
b1010 V
b1111111 W

#180000
0!
00

#185000
1!
0$
10
03

#190000
0!
00

#195000
1!
1%
b1 +
10
14
1?
b1 @
b1 E

#200000
0!
00

#205000
1!
0%
10
04
b1010 G

#210000
0!
00

#215000
1!
1&
1,
10
15
1P
b10 U

#220000
0!
00

#225000
1!
0&
0,
0.
10
05
0:
0;
0<
1=
0L
0M
0N
1O
0P
0R
b10 T
b0 U

#230000
0!
00

#235000
1!
1/
10
19
0=
b1001 J
1K
0O
1S
b0 T

#240000
0!
00

#245000
1!
b1000000 (
b0 +
10
0>
0?
b0 @
b0 A
b0 C
b0 E
b0 F
b0 V
b1000000 W

#250000
0!
00

#255000
1!
1"
10
11
1>
b0 G
b0 H
b1010 J

#260000
0!
00

#265000
1!
0"
1#
10
01
12
b1010 H
b1 U

#270000
0!
00

#275000
1!
0#
1.
0/
10
02
09
1:
1;
1<
0K
1L
1M
1N
1R
0S
b1 T
b1 U

#280000
0!
00

#285000
1!
1$
b10010 (
10
13
b101 A
b101 C
b101 F
b101 V
b10010 W

#290000
0!
00

#295000
1!
0$
10
03

#300000
0!
00

#305000
1!
1%
b1 +
10
14
1?
b1 @
b1 E

#310000
0!
00

#315000
1!
0%
10
04
0>
b1010 G

#320000
0!
00

#325000
1!
1&
1-
10
15
1Q
b11 U

#330000
0!
00

#335000
1!
0&
0-
0.
10
05
0:
0;
0<
0L
0M
0N
0Q
0R
b11 T
b0 U

#340000
0!
00

#345000
1!
1/
10
19
1K
1S
b0 T

#350000
0!
00

#355000
1!
b1000000 (
b0 +
10
0?
b0 @
b0 A
b0 C
b0 E
b0 F
b0 V
b1000000 W

#360000
0!
00

#365000
1!
1"
10
11
1>
b0 G
b0 H

#370000
0!
00

#375000
1!
0"
1#
10
01
12
b1010 H
b1 U

#380000
0!
00

#385000
1!
0#
b1 '
b1 *
1.
0/
10
02
b1 6
09
1:
1;
1<
b101 H
0K
1L
1M
1N
1R
0S
b1 T
b1 U

#390000
0!
00

#395000
1!
1$
b10010 (
10
13
b101 A
b101 C
b101 F
b101 V
b10010 W

#400000
0!
00

#405000
1!
0$
10
03

#410000
0!
00

#415000
1!
1$
b1111111 (
10
13
b1010 A
b1010 C
b1010 F
b1010 V
b1111111 W

#420000
0!
00

#425000
1!
0$
10
03

#430000
0!
00

#435000
1!
1$
10
13
b1111 A
b1111 C
b1111 F
b1111 V

#440000
0!
00

#445000
1!
0$
10
03

#450000
0!
00

#455000
1!
1%
b1 +
10
14
1?
b1 @
b1 E

#460000
0!
00

#465000
1!
0%
10
04
b101 G

#470000
0!
00

#475000
1!
1%
b10 +
10
14
b10 @
b10 E

#480000
0!
00

#485000
1!
0%
10
04
b1010 G

#490000
0!
00

#495000
1!
1%
b11 +
10
14
b11 @
b11 E

#500000
0!
00

#505000
1!
0%
10
04
b1111 G

#510000
0!
00

#515000
1!
1&
1,
10
15
1P
b10 U

#520000
0!
00

#525000
1!
0&
0,
0.
10
05
0:
0;
0<
1=
0L
0M
0N
1O
0P
0R
b10 T
b0 U

#530000
0!
00

#535000
1!
1/
10
19
0=
b111 I
1K
0O
1S
b0 T

#540000
0!
00

#545000
1!
b1000000 (
b0 +
10
0>
0?
b0 @
b0 A
b0 C
b0 E
b0 F
b0 V
b1000000 W

#550000
0!
00

#555000
1!
10

#560000
0!
00

#565000
1!
1"
10
11
1>
b0 G
b0 H
b1010 I

#570000
0!
00

#575000
1!
0"
1#
10
01
12
b101 H
b1 U

#580000
0!
00

#585000
1!
0#
1.
0/
10
02
09
1:
1;
1<
0K
1L
1M
1N
1R
0S
b1 T
b1 U

#590000
0!
00

#595000
1!
1$
b10010 (
10
13
b101 A
b101 C
b101 F
b101 V
b10010 W

#600000
0!
00

#605000
1!
0$
10
03

#610000
0!
00

#615000
1!
1&
1-
10
15
1Q
b11 U

#620000
0!
00

#625000
1!
0&
0-
0.
10
05
0:
0;
0<
0L
0M
0N
0Q
0R
b11 T
b0 U

#630000
0!
00

#635000
1!
1/
10
19
1K
1S
b0 T

#640000
0!
00

#645000
1!
b1000000 (
10
b0 A
b0 C
b0 F
b0 V
b1000000 W

#650000
0!
00

#655000
1!
1"
10
11
b0 H

#660000
0!
00

#665000
1!
0"
1#
10
01
12
b101 H
b1 U

#670000
0!
00

#675000
1!
0#
1.
0/
10
02
09
1:
1;
1<
0K
1L
1M
1N
1R
0S
b1 T
b1 U

#680000
0!
00

#685000
1!
1$
b10010 (
10
13
b101 A
b101 C
b101 F
b101 V
b10010 W

#690000
0!
00

#695000
1!
0$
10
03

#700000
0!
00

#705000
1!
1$
b1111111 (
10
13
b1010 A
b1010 C
b1010 F
b1010 V
b1111111 W

#710000
0!
00

#715000
1!
0$
10
03

#720000
0!
00

#725000
1!
1$
10
13
b1111 A
b1111 C
b1111 F
b1111 V

#730000
0!
00

#735000
1!
0$
10
03

#740000
0!
00

#745000
1!
1$
b11001 (
10
13
b10100 A
b10100 C
b10100 F
b100 V
b11001 W

#750000
0!
00

#755000
1!
0$
10
03

#760000
0!
00

#765000
1!
1$
b10000 (
10
13
b11001 A
b11001 C
b11001 F
b1001 V
b10000 W

#770000
0!
00

#775000
1!
0$
10
03

#780000
0!
00

#785000
1!
1%
b1 +
10
14
1?
b1 @
b1 E

#790000
0!
00

#795000
1!
0%
10
04
b101 G

#800000
0!
00

#805000
1!
1%
b10 +
10
14
b10 @
b10 E

#810000
0!
00

#815000
1!
0%
10
04
b1010 G

#820000
0!
00

#825000
1!
1%
b11 +
10
14
b11 @
b11 E

#830000
0!
00

#835000
1!
0%
10
04
b1111 G

#840000
0!
00

#845000
1!
1%
b100 +
10
14
b100 @
b100 E

#850000
0!
00

#855000
1!
0%
10
04
b10100 G

#860000
0!
00

#865000
1!
1%
b101 +
10
14
b101 @
b101 E

#870000
0!
00

#875000
1!
0%
10
04
b11001 G

#880000
0!
00

#885000
1!
1&
1,
10
15
1P
b10 U

#890000
0!
00

#895000
1!
0&
0,
0.
10
05
0:
0;
0<
1=
0L
0M
0N
1O
0P
0R
b10 T
b0 U

#900000
0!
00

#905000
1!
1/
10
19
0=
b101 I
1K
0O
1S
b0 T

#910000
0!
00

#915000
1!
b1000000 (
b0 +
10
0>
0?
b0 @
b0 A
b0 C
b0 E
b0 F
b0 V
b1000000 W

#920000
0!
00

#925000
1!
10

#930000
0!
00

#935000
1!
1"
10
11
1>
b0 G
b0 H
b1010 I

#940000
0!
00

#945000
1!
0"
1#
10
01
12
b101 H
b1 U

#950000
0!
00

#955000
1!
0#
1.
0/
10
02
09
1:
1;
1<
0K
1L
1M
1N
1R
0S
b1 T
b1 U

#960000
0!
00

#965000
1!
1$
b10010 (
10
13
b101 A
b101 C
b101 F
b101 V
b10010 W

#970000
0!
00

#975000
1!
0$
10
03

#980000
0!
00

#985000
1!
1$
b1111111 (
10
13
b1010 A
b1010 C
b1010 F
b1010 V
b1111111 W

#990000
0!
00

#995000
1!
0$
10
03

